RFAccel/synth/scaled/macUnit/simOutputLog.txt
vlog -sv bsnn_mac.v tb_bsnn_mac.v
QuestaSim-64 vlog 2021.3_1 Compiler 2021.08 Aug 15 2021
Start time: 01:07:01 on Jun 04,2025
vlog -sv bsnn_mac.v tb_bsnn_mac.v 
-- Compiling module bsnn_mac
-- Compiling module tb_bsnn_mac

Top level modules:
	tb_bsnn_mac
End time: 01:07:01 on Jun 04,2025, Elapsed time: 0:00:00
Errors: 0, Warnings: 0
vsim -c -do "run -all; quit" tb_bsnn_mac
Reading pref.tcl

# 2021.3_1

# vsim -c -do "run -all; quit" tb_bsnn_mac 
# Start time: 01:07:02 on Jun 04,2025
# ** Note: (vsim-3813) Design is being optimized due to module recompilation...
# //  Questa Sim-64
# //  Version 2021.3_1 linux_x86_64 Aug 15 2021
# //
# //  Copyright 1991-2021 Mentor Graphics Corporation
# //  All Rights Reserved.
# //
# //  QuestaSim and its associated documentation contain trade
# //  secrets and commercial or financial information that are the property of
# //  Mentor Graphics Corporation and are privileged, confidential,
# //  and exempt from disclosure under the Freedom of Information Act,
# //  5 U.S.C. Section 552. Furthermore, this information
# //  is prohibited from disclosure under the Trade Secrets Act,
# //  18 U.S.C. Section 1905.
# //
# Loading sv_std.std
# Loading work.tb_bsnn_mac(fast)
# run -all
# DEBUG @ 15000: acc_comb=8 acc_reg=0 valid=0 spike=0
# DEBUG @ 25000: acc_comb=2 acc_reg=8 valid=0 spike=0
# DEBUG @ 35000: acc_comb=2 acc_reg=2 valid=0 spike=0
# DEBUG @ 45000: acc_comb=7 acc_reg=2 valid=1 spike=1
# Time: 45000 | Case 1: One bit mismatch at position 5
# Signals: rst=0 | valid=1 | load=0 | spike=0
# -------------------------------------------------------------
# Weights   : 11011011
# Inputs    : 11011111
# MatchBits : 11111011
# acc_comb     : 7
# Bitwise match analysis:
#   i | W[i] | I[i] | Match
#   0 |   1   |   1   |   1
#   1 |   1   |   1   |   1
#   2 |   0   |   1   |   0
#   3 |   1   |   1   |   1
#   4 |   1   |   1   |   1
#   5 |   0   |   0   |   1
#   6 |   1   |   1   |   1
#   7 |   1   |   1   |   1
# â Expected matches: 7
# 
# DEBUG @ 55000: acc_comb=4 acc_reg=7 valid=1 spike=0
# DEBUG @ 65000: acc_comb=4 acc_reg=4 valid=1 spike=0
# Time: 65000 | Case 2: Lower nibble mismatch
# Signals: rst=0 | valid=1 | load=0 | spike=0
# -------------------------------------------------------------
# Weights   : 11011011
# Inputs    : 11110000
# MatchBits : 11010100
# acc_comb     : 4
# Bitwise match analysis:
#   i | W[i] | I[i] | Match
#   0 |   1   |   0   |   0
#   1 |   1   |   0   |   0
#   2 |   0   |   0   |   1
#   3 |   1   |   0   |   0
#   4 |   1   |   1   |   1
#   5 |   0   |   1   |   0
#   6 |   1   |   1   |   1
#   7 |   1   |   1   |   1
# â Expected matches: 4
# 
# DEBUG @ 75000: acc_comb=8 acc_reg=4 valid=1 spike=1
# DEBUG @ 85000: acc_comb=8 acc_reg=8 valid=1 spike=1
# Time: 85000 | Case 3: Perfect match
# Signals: rst=0 | valid=1 | load=0 | spike=1
# -------------------------------------------------------------
# Weights   : 11011011
# Inputs    : 11011011
# MatchBits : 11111111
# acc_comb     : 8
# Bitwise match analysis:
#   i | W[i] | I[i] | Match
#   0 |   1   |   1   |   1
#   1 |   1   |   1   |   1
#   2 |   0   |   0   |   1
#   3 |   1   |   1   |   1
#   4 |   1   |   1   |   1
#   5 |   0   |   0   |   1
#   6 |   1   |   1   |   1
#   7 |   1   |   1   |   1
# â Expected matches: 8
# 
# DEBUG @ 95000: acc_comb=0 acc_reg=8 valid=1 spike=0
# DEBUG @ 105000: acc_comb=0 acc_reg=0 valid=1 spike=0
# Time: 105000 | Case 4: Complete mismatch
# Signals: rst=0 | valid=1 | load=0 | spike=0
# -------------------------------------------------------------
# Weights   : 11011011
# Inputs    : 00100100
# MatchBits : 00000000
# acc_comb     : 0
# Bitwise match analysis:
#   i | W[i] | I[i] | Match
#   0 |   1   |   0   |   0
#   1 |   1   |   0   |   0
#   2 |   0   |   1   |   0
#   3 |   1   |   0   |   0
#   4 |   1   |   0   |   0
#   5 |   0   |   1   |   0
#   6 |   1   |   0   |   0
#   7 |   1   |   0   |   0
# â Expected matches: 0
# 
# DEBUG @ 115000: acc_comb=7 acc_reg=0 valid=1 spike=1
# DEBUG @ 125000: acc_comb=7 acc_reg=7 valid=1 spike=1
# Time: 125000 | Case 5: One mismatch at bit 1
# Signals: rst=0 | valid=1 | load=0 | spike=1
# -------------------------------------------------------------
# Weights   : 11011011
# Inputs    : 11011001
# MatchBits : 11111101
# acc_comb     : 7
# Bitwise match analysis:
#   i | W[i] | I[i] | Match
#   0 |   1   |   1   |   1
#   1 |   1   |   0   |   0
#   2 |   0   |   0   |   1
#   3 |   1   |   1   |   1
#   4 |   1   |   1   |   1
#   5 |   0   |   0   |   1
#   6 |   1   |   1   |   1
#   7 |   1   |   1   |   1
# â Expected matches: 7
# 
# ** Note: $finish    : tb_bsnn_mac.v(103)
#    Time: 135 ns  Iteration: 0  Instance: /tb_bsnn_mac
# End time: 01:07:04 on Jun 04,2025, Elapsed time: 0:00:02
# Errors: 0, Warnings: 0
